…
# Check
most_recent_inspection %>% 
  group_by(restaurant_id) %>% 
  count(sort = TRUE) # ok
```

```
## # A tibble: 22,664 x 2
## # Groups:   restaurant_id [22,664]
##    restaurant_id     n
##            <int> <int>
##  1      30075445     1
##  2      30112340     1
##  3      30191841     1
##  4      40356018     1
##  5      40356151     1
##  6      40356483     1
##  7      40356731     1
##  8      40357217     1
##  9      40359480     1
## 10      40359705     1
## # ... with 22,654 more rows
```
…
```r
df %>% 
  filter(critical_flag == "Critical") %>% 
  select(violation_description) %>% distinct()
```

```
## # A tibble: 49 x 1
##    violation_description                                                  
##    <chr>                                                                  
##  1 Live roaches present in facility's food and/or non-food areas.         
##  2 Raw, cooked or prepared food is adulterated, contaminated, cross-conta~
##  3 Cold food item held above 41º F (smoked fish and reduced oxygen packag~
##  4 Food contact surface not properly washed, rinsed and sanitized after e~
##  5 Food not protected from potential source of contamination during stora~
##  6 Food worker does not use proper utensil to eliminate bare hand contact~
##  7 Hand washing facility not provided in or near food preparation area an~
##  8 "Filth flies or food/refuse/sewage-associated (FRSA) flies present in ~
##  9 Evidence of mice or live mice present in facility's food and/or non-fo~
## 10 Appropriately scaled metal stem-type thermometer or thermocouple not p~
## # ... with 39 more rows
```
…
